{
  "items": [
    {
      "id": "GET:/api/v1/system/api-resources",
      "method": "GET",
      "path": "/api/v1/system/api-resources",
      "handler": "shadmin/api/controller.(*ApiResourceController).GetApiResources-fm",
      "module": "system",
      "is_public": false,
      "created_at": "2026-04-24T00:32:25.732314821+08:00",
      "updated_at": "2026-04-24T00:32:25.732314821+08:00"
    },
    {
      "id": "GET:/api/v1/system/dict/items",
      "method": "GET",
      "path": "/api/v1/system/dict/items",
      "handler": "shadmin/api/controller.(*DictController).GetDictItems-fm",
      "module": "system",
      "is_public": false,
      "created_at": "2026-04-24T00:32:25.732314821+08:00",
      "updated_at": "2026-04-24T00:32:25.732314821+08:00"
    },
    {
      "id": "POST:/api/v1/system/dict/items",
      "method": "POST",
      "path": "/api/v1/system/dict/items",
      "handler": "shadmin/api/controller.(*DictController).CreateDictItem-fm",
      "module": "system",
      "is_public": false,
      "created_at": "2026-04-24T00:32:25.732314821+08:00",
      "updated_at": "2026-04-24T00:32:25.732314821+08:00"
    }
  ],
  "total": 33,
  "page": 1,
  "page_size": 3,
  "total_pages": 11
}
